{
  "images" : [
    {
      "idiom" : "universal",
      "filename" : "bell.png",
      "scale" : "1x"
    },
    {
      "idiom" : "universal",
      "filename" : "bell@2x.png",
      "scale" : "2x"
    },
    {
      "idiom" : "universal",
      "filename" : "bell@3x.png",
      "scale" : "3x"
    },
    {
      "idiom" : "ipad",
      "filename" : "notificaticon_deactive_icon_ipad.png",
      "scale" : "1x"
    },
    {
      "idiom" : "ipad",
      "filename" : "notificaticon_deactive_icon_ipad@2x.png",
      "scale" : "2x"
    }
  ],
  "info" : {
    "version" : 1,
    "author" : "xcode"
  }
}